<?xml version="1.0" encoding="utf-8"?>
<!-- Generator: Adobe Illustrator 22.1.0, SVG Export Plug-In . SVG Version: 6.00 Build 0)  -->
<svg version="1.1" id="Layer_1" xmlns="http://www.w3.org/2000/svg" xmlns:xlink="http://www.w3.org/1999/xlink" x="0px" y="0px"
	 viewBox="0 0 284.6 30" style="enable-background:new 0 0 284.6 30;" xml:space="preserve">
<style type="text/css">
	.st0{fill:#171F3F;}
</style>
<g>
	<path class="st0" d="M283.7,8.7c-0.6-1.7-1.4-3.1-2.3-4.2c-0.9-1.1-1.9-2-3-2.6c-1.1-0.6-2.1-1-3-1.3c-0.9-0.3-1.7-0.4-2.4-0.5
		c-0.7,0-1-0.1-1-0.1h-7.5c-0.6,0-1.1,0.2-1.5,0.6c-0.4,0.4-0.6,0.9-0.6,1.5v25.8c0,0.6,0.2,1.1,0.6,1.5c0.4,0.4,0.9,0.6,1.5,0.6
		h7.5c0,0,0.4,0,1-0.1c0.6,0,1.4-0.2,2.4-0.5c1-0.3,2-0.7,3-1.3c1.1-0.6,2.1-1.5,3-2.6c0.9-1.1,1.7-2.5,2.3-4.2
		c0.6-1.7,0.9-3.8,0.9-6.3S284.3,10.4,283.7,8.7z M279.3,20.7c-0.7,1.6-1.7,2.8-3,3.6c-0.5,0.3-1,0.6-1.5,0.8
		c-0.5,0.2-1,0.3-1.4,0.4c-0.4,0.1-0.7,0.2-1,0.2c-0.3,0-0.4,0-0.5,0h-5.3V4.3h5.3c0.5,0.1,1,0.1,1.4,0.2c0.4,0.1,0.8,0.2,1.3,0.4
		c0.5,0.2,1,0.4,1.4,0.7c1.4,0.9,2.4,2.1,3.2,3.7c0.7,1.6,1.1,3.5,1.1,5.8C280.3,17.2,280,19.1,279.3,20.7z"/>
	<path class="st0" d="M242.8,9.2c-0.8-1.8-1.8-3.4-3.1-4.8c-1.3-1.4-2.8-2.4-4.6-3.2c-1.7-0.8-3.6-1.2-5.6-1.2c-2,0-3.8,0.4-5.6,1.2
		c-1.7,0.8-3.3,1.9-4.6,3.2c-1.3,1.4-2.3,3-3.1,4.8c-0.8,1.8-1.1,3.8-1.1,5.8c0,2.1,0.4,4,1.1,5.8c0.8,1.8,1.8,3.4,3.1,4.8
		c1.3,1.3,2.8,2.4,4.6,3.2c1.7,0.8,3.6,1.2,5.6,1.2c2,0,3.8-0.4,5.6-1.2c1.7-0.8,3.3-1.9,4.6-3.2c1.3-1.4,2.3-3,3.1-4.8
		c0.8-1.8,1.1-3.8,1.1-5.8C244,13,243.6,11,242.8,9.2z M238.9,19.2c-0.5,1.3-1.2,2.4-2.2,3.4c-0.9,1-2,1.7-3.2,2.3
		c-1.2,0.6-2.5,0.8-3.9,0.8c-1.4,0-2.7-0.3-3.9-0.8c-1.2-0.6-2.3-1.3-3.2-2.3c-0.9-1-1.6-2.1-2.2-3.4c-0.5-1.3-0.8-2.7-0.8-4.2
		c0-1.5,0.3-2.9,0.8-4.2c0.5-1.3,1.2-2.4,2.2-3.4c0.9-1,2-1.7,3.2-2.3c1.2-0.6,2.5-0.8,3.9-0.8c1.4,0,2.7,0.3,3.9,0.8
		c1.2,0.6,2.3,1.3,3.2,2.3c0.9,1,1.6,2.1,2.2,3.4c0.5,1.3,0.8,2.7,0.8,4.2C239.7,16.5,239.4,17.9,238.9,19.2z"/>
	<path class="st0" d="M195.8,9.2c-0.8-1.8-1.8-3.4-3.1-4.8c-1.3-1.4-2.8-2.4-4.6-3.2c-1.7-0.8-3.6-1.2-5.6-1.2c-2,0-3.8,0.4-5.6,1.2
		c-1.7,0.8-3.3,1.9-4.6,3.2c-1.3,1.4-2.3,3-3.1,4.8s-1.1,3.8-1.1,5.8c0,2.1,0.4,4,1.1,5.8c0.8,1.8,1.8,3.4,3.1,4.8
		c1.3,1.3,2.8,2.4,4.6,3.2c1.7,0.8,3.6,1.2,5.6,1.2c2,0,3.8-0.4,5.6-1.2c1.7-0.8,3.3-1.9,4.6-3.2c1.3-1.4,2.3-3,3.1-4.8
		c0.8-1.8,1.1-3.8,1.1-5.8C197,13,196.6,11,195.8,9.2z M191.9,19.2c-0.5,1.3-1.2,2.4-2.2,3.4c-0.9,1-2,1.7-3.2,2.3
		c-1.2,0.6-2.5,0.8-3.9,0.8s-2.7-0.3-3.9-0.8c-1.2-0.6-2.3-1.3-3.2-2.3c-0.9-1-1.6-2.1-2.2-3.4c-0.5-1.3-0.8-2.7-0.8-4.2
		c0-1.5,0.3-2.9,0.8-4.2c0.5-1.3,1.2-2.4,2.2-3.4c0.9-1,2-1.7,3.2-2.3c1.2-0.6,2.5-0.8,3.9-0.8s2.7,0.3,3.9,0.8
		c1.2,0.6,2.3,1.3,3.2,2.3c0.9,1,1.6,2.1,2.2,3.4c0.5,1.3,0.8,2.7,0.8,4.2C192.7,16.5,192.4,17.9,191.9,19.2z"/>
	<path class="st0" d="M153.2,2.2c0,0.3,0,0.6-0.1,0.8l-10.7,25.7c-0.2,0.4-0.4,0.7-0.8,1c-0.4,0.2-0.8,0.4-1.2,0.4
		c-1,0-1.6-0.4-2-1.3l-3.8-9.1l-3.8,9.1c-0.2,0.4-0.4,0.7-0.8,1c-0.4,0.2-0.8,0.4-1.2,0.4c-0.4,0-0.8-0.1-1.2-0.4
		c-0.4-0.2-0.6-0.6-0.8-1L116.1,3C116,2.8,116,2.5,116,2.2c0-0.5,0.2-1,0.6-1.5c0.4-0.4,0.9-0.7,1.6-0.7c0.4,0,0.8,0.1,1.2,0.4
		s0.6,0.6,0.8,1l8.8,21l3.4-8.3l-4.6-11c-0.1-0.3-0.2-0.6-0.2-0.9c0-0.5,0.2-1,0.6-1.4c0.4-0.4,0.9-0.7,1.6-0.7c1,0,1.6,0.5,1.9,1.3
		l3,7.1l3-7.1c0.1-0.4,0.4-0.7,0.8-1c0.4-0.2,0.8-0.4,1.2-0.4c0.7,0,1.2,0.2,1.6,0.7c0.4,0.4,0.6,0.9,0.6,1.5c0,0.3,0,0.6-0.1,0.8
		l-4.7,11l3.5,8.3l8.7-21c0.1-0.4,0.4-0.7,0.7-1c0.4-0.2,0.8-0.4,1.2-0.4c0.3,0,0.5,0.1,0.8,0.2c0.4,0.2,0.8,0.5,1,0.8
		S153.2,1.8,153.2,2.2z"/>
	<path class="st0" d="M97.6,2.1c0,0.5-0.1,0.9-0.4,1.2l-8.6,12.3v12.2c0,0.6-0.2,1.1-0.6,1.5c-0.4,0.4-1,0.6-1.5,0.6
		c-0.6,0-1.1-0.2-1.5-0.6c-0.4-0.4-0.6-0.9-0.6-1.5V15.7L75.7,3.4c-0.3-0.3-0.4-0.7-0.4-1.1c0-0.6,0.2-1.1,0.5-1.6
		C76.2,0.3,76.8,0,77.4,0c0.8,0,1.3,0.3,1.8,1l7.2,10.3L93.7,1c0.5-0.6,1-1,1.8-1c0.5,0,0.9,0.1,1.2,0.4C97.3,0.9,97.6,1.5,97.6,2.1
		z"/>
	<path class="st0" d="M56.6,27.1c0.1,0.3,0.2,0.5,0.2,0.8c0,0.6-0.2,1.1-0.6,1.5c-0.4,0.4-0.9,0.6-1.5,0.6c-0.2,0-0.5-0.1-0.8-0.2
		c-0.3-0.1-0.5-0.3-0.8-0.5L41.4,16.5v11.4c0,0.6-0.2,1.1-0.6,1.5c-0.4,0.4-0.9,0.6-1.5,0.6c-0.6,0-1.1-0.2-1.5-0.6
		c-0.4-0.4-0.6-0.9-0.6-1.5V2.1c0-0.6,0.2-1.1,0.6-1.5C38.1,0.2,38.6,0,39.2,0c0.6,0,1.1,0.2,1.5,0.6c0.4,0.4,0.6,0.9,0.6,1.5v11.4
		L53,0.7c0.2-0.2,0.5-0.4,0.8-0.5C54.1,0.1,54.4,0,54.6,0c0.6,0,1.1,0.2,1.5,0.6c0.4,0.4,0.6,0.9,0.6,1.5c0,0.5-0.2,1-0.6,1.5
		L45.8,15l10.4,11.4C56.4,26.7,56.5,26.9,56.6,27.1z"/>
	<path class="st0" d="M18.5,20.2v0.5c0,1.2-0.2,2.4-0.7,3.5c-0.5,1.1-1.1,2.1-2,2.9c-0.9,0.9-2,1.6-3.2,2.1s-2.6,0.8-4,0.8H8.3
		c-1.8-0.1-3.4-0.6-4.9-1.5c-1.4-0.9-2.5-2.2-3.3-3.8C0,24.4,0,24.1,0,23.7c0-0.4,0.1-0.8,0.3-1.1c0.2-0.4,0.5-0.6,0.9-0.8
		c0.2-0.2,0.5-0.2,0.9-0.2c0.4,0,0.8,0.1,1.2,0.3c0.4,0.2,0.6,0.5,0.8,0.9c0.4,0.9,1,1.5,1.8,2c0.8,0.5,1.7,0.8,2.7,0.8h0.2
		c1.7,0,3-0.5,4.1-1.5c1-1,1.5-2.2,1.5-3.5v-0.2c-0.1-0.6-0.3-1.1-0.8-1.6c-0.5-0.5-1-1-1.6-1.4c-0.6-0.4-1.3-0.8-1.9-1.1
		c-0.7-0.3-1.2-0.5-1.7-0.7c0,0-0.1,0-0.1,0c-0.1,0-0.1,0-0.2,0c-4.2-1.5-6.4-4.2-6.4-8V7.2c0.1-1.1,0.3-2.1,0.8-3
		c0.5-0.9,1.1-1.7,2.1-2.4c0.7-0.6,1.6-1.1,2.6-1.4c1-0.3,2-0.5,3.1-0.5h0.4c0.8,0,1.7,0.2,2.6,0.6c0.9,0.3,1.7,0.8,2.4,1.3
		c0.2,0.2,0.4,0.5,0.6,0.8c0.2,0.3,0.2,0.6,0.2,0.9c0,0.5-0.1,1-0.5,1.3c-0.4,0.6-1,0.8-1.7,0.8c-0.2,0-0.4,0-0.6-0.1
		c-0.2-0.1-0.4-0.2-0.6-0.3c-0.3-0.2-0.8-0.5-1.2-0.6c-0.5-0.2-0.9-0.3-1.3-0.3h-0.3c-1.2,0-2.2,0.3-3,0.9C6.3,5.8,5.9,6.5,5.9,7.4
		v0.2c0,0.6,0.1,1.2,0.3,1.6C6.4,9.6,6.6,10,7,10.3c0.3,0.3,0.7,0.5,1.2,0.8c0.5,0.2,0.9,0.4,1.4,0.6l0,0c0.2,0.1,0.5,0.2,1.1,0.4
		c0.5,0.2,1.1,0.5,1.7,0.8c0.6,0.3,1.3,0.7,2,1.2c0.7,0.5,1.3,1,1.9,1.6c0.6,0.6,1.1,1.3,1.5,2C18.2,18.4,18.4,19.3,18.5,20.2z"/>
</g>
</svg>
